{
    "carType": "coupe",
    "sectionCount": 5,
    "placeCount": 20,
    "countPlaceInSection": 4,
    "placeFloor": 2,
    "placeWidth": 40,
    "placeHeight": 40,
    "startSectionDirection": "left",
    "startPlaceDirection": "left",
    "toilets": [
        {
            "xPosition": "left",
            "yPosition": "top"
        }
    ],
    "entrances": [
        {
            "xPosition": "left",
            "yPosition": "bottom"
        }
    ],
    "isHasSectionForConductor": true,
    "isHasBuffet": true,
    "isSectionHasShowerAndToilet": true
}